Modul Praktikum Pemodelan Iklim - 3 Model Pendugaan Radiasi Matahari
…
install.packages(c("tidyverse", "readxl"))

Pengetikan kode R dapat dilakukan di aplikasi RStudio atau teks editor lainnya yang Anda kuasai.

Model Ball et al. (2004)

Langkah-langkah pengolahan data untuk model Ball et al. (2004) adalah sebagai berikut.

Impor data excel (LaguardiaAirport-NYC.xlsx) pada sheet RawData dengan perintah berikut.

dpath <- "data/" # Lokasi folder data
data <- read_excel(paste0(dpath, "LaguardiaAirport-NYC.xlsx"), sheet = "RawData")
data

   # A tibble: 8,401 × 7
    YEAR   DOY  PRCP  TAVG  TMAX  TMIN  SRAD
   <dbl> <dbl> <dbl> <dbl> <dbl> <dbl> <dbl>
 1  1998     1   0    -5    -1.1  -8.9 253.
 2  1998     2   0     4.7  10    -0.6 136.
 3  1998     3   0    12    15.6   8.3  97.8
 4  1998     4   0    11.7  17.2   6.1 122.
 5  1998     5   0     5.9   6.7   5   129.
 6  1998     6   1    10.3  15     5.6  14.4
 7  1998     7  28.7   9.5  13.9   5     2.6
 8  1998     8   0.8  10.3  16.1   4.4  10.2
 9  1998     9   0    12    15     8.9  24.7
10  1998    10   0     7.8  10     5.6 199.
# … with 8,391 more rows
# ℹ Use `print(n = ...)` to see more rows
…
